Energy Transition, Emissions, and Production
…
#removing the MSN column and column_order because it is simply coding the description
production <- 
  production %>%
  select(-MSN, -Column_Order) %>%
#removing the units because it is metadata for the variables (and same for all production)
  select(-Unit) %>%
#giving each energy production type its own column
  pivot_wider(names_from = Description,
              values_from = Value)

#checking out these updates
production

## # A tibble: 659 × 14
##    YYYYMM `Coal Production` `Natural Gas (Dr… `Crude Oil Prod… `Natural Gas Pla…
##     <int> <chr>             <chr>             <chr>            <chr>            
##  1 194913 11.973882         5.377243          10.683252        0.706102         
##  2 195013 14.060135         6.232975          11.446729        0.813366         
##  3 195113 14.419325         7.415733          13.036724        0.910336         
##  4 195213 12.734313         7.963599          13.281049        0.985701         
##  5 195313 12.277746         8.338838          13.671076        1.050702         
##  6 195413 10.542448         8.681785          13.42693         1.101065         
##  7 195513 12.369608         9.344668          14.409682        1.222838         
##  8 195613 13.306334         10.002147         15.180241        1.264288         
##  9 195713 13.061393         10.605254         15.178026        1.273767         
## 10 195813 10.783088         10.942235         14.204125        1.275674         
## # … with 649 more rows, and 9 more variables:
## #   Total Fossil Fuels Production <chr>,
## #   Nuclear Electric Power Production <chr>,
## #   Hydroelectric Power Production <chr>, Geothermal Energy Production <chr>,
## #   Solar Energy Production <chr>, Wind Energy Production <chr>,
## #   Biomass Energy Production <chr>, Total Renewable Energy Production <chr>,
## #   Total Primary Energy Production <chr>
…
#removing the MSN column and column_order because it is simply coding the description
emissions <-
  emissions %>%
  select(-MSN, -Column_Order) %>%
#removing the units too because they are tied to each variable
  select(-Unit) %>%
#giving each energy production type its own column
  pivot_wider(names_from = Description,
              values_from = Value) 

#checking out these updates
emissions

## # A tibble: 72 × 11
##    YYYYMM `Total Primary E… `Total Primary E… `Total Primary E… `Energy Expendi…
##     <int> <chr>             <chr>             <chr>             <chr>           
##  1 194913 31.967775         214               15.18             Not Available   
##  2 195013 34.598567         227               15.11             Not Available   
##  3 195113 36.953661         239               14.94             Not Available   
##  4 195213 36.726037         233               14.26             Not Available   
##  5 195313 37.640598         235               13.96             Not Available   
##  6 195413 36.61354          225               13.66             Not Available   
##  7 195513 40.178285         242               13.99             Not Available   
##  8 195613 41.721757         247               14.23             Not Available   
##  9 195713 41.753909         243               13.95             Not Available   
## 10 195813 41.60928          238               14                Not Available   
## # … with 62 more rows, and 6 more variables:
## #   Energy Expenditures per Capita <chr>,
## #   Energy Expenditures as Share of GDP <chr>,
## #   Energy Expenditures as Share of Gross Output <chr>,
## #   Total Energy CO2 Emissions <chr>,
## #   Total Energy CO2 Emissions per Capita <chr>,
## #   Total Energy CO2 Emissions per Real Dollar of GDP <chr>

I now want to separate the YYYMM column into year and month for both the production and emissions datasets.

#separating year and month in production dataset
production <- production %>% 
  separate(YYYYMM, into = c("Year", "Month"), sep =4)

#viewing changes
production

## # A tibble: 659 × 15
##    Year  Month `Coal Production` `Natural Gas (Dry) Production` `Crude Oil Prod…
##    <chr> <chr> <chr>             <chr>                          <chr>           
##  1 1949  13    11.973882         5.377243                       10.683252       
##  2 1950  13    14.060135         6.232975                       11.446729       
##  3 1951  13    14.419325         7.415733                       13.036724       
##  4 1952  13    12.734313         7.963599                       13.281049       
##  5 1953  13    12.277746         8.338838                       13.671076       
##  6 1954  13    10.542448         8.681785                       13.42693        
##  7 1955  13    12.369608         9.344668                       14.409682       
##  8 1956  13    13.306334         10.002147                      15.180241       
##  9 1957  13    13.061393         10.605254                      15.178026       
## 10 1958  13    10.783088         10.942235                      14.204125       
## # … with 649 more rows, and 10 more variables:
## #   Natural Gas Plant Liquids Production <chr>,
## #   Total Fossil Fuels Production <chr>,
## #   Nuclear Electric Power Production <chr>,
## #   Hydroelectric Power Production <chr>, Geothermal Energy Production <chr>,
## #   Solar Energy Production <chr>, Wind Energy Production <chr>,
## #   Biomass Energy Production <chr>, Total Renewable Energy Production <chr>, …

#separating year and month in emissions dataset
emissions <- emissions %>% 
  separate(YYYYMM, into = c("Year", "Month"), sep =4)

#viewing changes
emissions

## # A tibble: 72 × 12
##    Year  Month `Total Primary Ener… `Total Primary Energ… `Total Primary Energy…
##    <chr> <chr> <chr>                <chr>                 <chr>                 
##  1 1949  13    31.967775            214                   15.18                 
##  2 1950  13    34.598567            227                   15.11                 
##  3 1951  13    36.953661            239                   14.94                 
##  4 1952  13    36.726037            233                   14.26                 
##  5 1953  13    37.640598            235                   13.96                 
##  6 1954  13    36.61354             225                   13.66                 
##  7 1955  13    40.178285            242                   13.99                 
##  8 1956  13    41.721757            247                   14.23                 
##  9 1957  13    41.753909            243                   13.95                 
## 10 1958  13    41.60928             238                   14                    
## # … with 62 more rows, and 7 more variables: Energy Expenditures <chr>,
## #   Energy Expenditures per Capita <chr>,
## #   Energy Expenditures as Share of GDP <chr>,
## #   Energy Expenditures as Share of Gross Output <chr>,
## #   Total Energy CO2 Emissions <chr>,
## #   Total Energy CO2 Emissions per Capita <chr>,
## #   Total Energy CO2 Emissions per Real Dollar of GDP <chr>
…
Please note that there are currently 72 observations in each dataset. Each also contains 72 unique ID variables, and there are no (0) IDs that appear in one dataset but not the other.

I will now join the two cleaned datasets. I used a full join to include all the variables from both datasets.

prod_emissions <- 
  full_join(production, emissions, by = "Year")

#examining joined dataset
prod_emissions

## # A tibble: 72 × 24
##    Year  `Coal Production` `Natural Gas (Dr… `Crude Oil Produ… `Natural Gas Pla…
##    <chr> <chr>             <chr>             <chr>             <chr>            
##  1 1949  11.973882         5.377243          10.683252         0.706102         
##  2 1950  14.060135         6.232975          11.446729         0.813366         
##  3 1951  14.419325         7.415733          13.036724         0.910336         
##  4 1952  12.734313         7.963599          13.281049         0.985701         
##  5 1953  12.277746         8.338838          13.671076         1.050702         
##  6 1954  10.542448         8.681785          13.42693          1.101065         
##  7 1955  12.369608         9.344668          14.409682         1.222838         
##  8 1956  13.306334         10.002147         15.180241         1.264288         
##  9 1957  13.061393         10.605254         15.178026         1.273767         
## 10 1958  10.783088         10.942235         14.204125         1.275674         
## # … with 62 more rows, and 19 more variables:
## #   Total Fossil Fuels Production <chr>,
## #   Nuclear Electric Power Production <chr>,
## #   Hydroelectric Power Production <chr>, Geothermal Energy Production <chr>,
## #   Solar Energy Production <chr>, Wind Energy Production <chr>,
## #   Biomass Energy Production <chr>, Total Renewable Energy Production <chr>,
## #   Total Primary Energy Production <chr>, …
…
